tarea1/parteD/simulation/qsim/TAREA1_D.msim.vcd
$comment
	File created using the following command:
		vcd file TAREA1_D.msim.vcd -direction
$end
$date
	Sat Sep 13 19:33:53 2025
$end
$version
	ModelSim Version 10.1d
$end
$timescale
	1ps
$end
$scope module TAREA1_D_vlg_vec_tst $end
$var reg 3 ! SW [2:0] $end
$var wire 1 " A1 $end
$var wire 1 # A2 $end
$var wire 1 $ B1 $end
$var wire 1 % B2 $end
$var wire 1 & C1 $end
$var wire 1 ' C2 $end
$var wire 1 ( D1 $end
$var wire 1 ) D2 $end
$var wire 1 * E1 $end
$var wire 1 + E2 $end
$var wire 1 , F1 $end
$var wire 1 - F2 $end
$var wire 1 . G1 $end
$var wire 1 / G2 $end
$var wire 1 0 sampler $end
$scope module i1 $end
$var wire 1 1 gnd $end
$var wire 1 2 vcc $end
$var wire 1 3 unknown $end
$var tri1 1 4 devclrn $end
$var tri1 1 5 devpor $end
$var tri1 1 6 devoe $end
$var wire 1 7 A1~output_o $end
$var wire 1 8 B1~output_o $end
$var wire 1 9 C1~output_o $end
$var wire 1 : D1~output_o $end
$var wire 1 ; E1~output_o $end
$var wire 1 < F1~output_o $end
$var wire 1 = G1~output_o $end
$var wire 1 > A2~output_o $end
$var wire 1 ? B2~output_o $end
$var wire 1 @ C2~output_o $end
$var wire 1 A D2~output_o $end
$var wire 1 B E2~output_o $end
$var wire 1 C F2~output_o $end
$var wire 1 D G2~output_o $end
$var wire 1 E SW[2]~input_o $end
$var wire 1 F SW[1]~input_o $end
$var wire 1 G SW[0]~input_o $end
$var wire 1 H inst0|34~0_combout $end
$var wire 1 I inst1|28~combout $end
$var wire 1 J inst1|50~0_combout $end
$var wire 1 K inst0|36~0_combout $end
$var wire 1 L inst0|32~0_combout $end
$var wire 1 M inst0|37~0_combout $end
$var wire 1 N inst0|33~0_combout $end
$var wire 1 O inst1|34~combout $end
$var wire 1 P inst1|35~0_combout $end
$var wire 1 Q inst1|50~1_combout $end
$var wire 1 R inst1|36~0_combout $end
$var wire 1 S inst1|32~combout $end
$var wire 1 T inst1|37~0_combout $end
$var wire 1 U inst1|33~combout $end
$upscope $end
$upscope $end
$enddefinitions $end
#0
$dumpvars
b0 !
1"
0#
0$
0%
0&
0'
1(
0)
1*
0+
1,
0-
1.
1/
x0
01
12
x3
14
15
16
17
08
09
1:
1;
1<
1=
0>
0?
0@
0A
0B
0C
1D
0E
0F
0G
1H
0I
0J
1K
1L
0M
1N
0O
1P
0Q
0R
0S
0T
1U
$end
#20000
b100 !
1E
00
1M
0U
1S
1R
1O
0N
0K
1I
0H
0<
0D
1B
1A
1>
0=
0:
18
07
0,
0/
1+
1)
1#
0.
0(
1$
0"
#40000
b110 !
b10 !
1F
0E
10
0M
1T
0S
0R
1Q
0O
0I
1<
1C
0B
0A
1@
0>
08
1,
1-
0+
0)
1'
0#
0$
#60000
b110 !
1E
00
0P
0T
0Q
1O
1N
1K
1?
0C
0@
1>
1=
1:
1%
0-
0'
1#
1.
1(
#80000
b111 !
b101 !
b1 !
1G
0F
0E
10
1P
1U
1T
1S
1R
0N
0L
0K
1J
0?
1D
1C
1B
1A
0=
0;
0:
19
0%
1/
1-
1+
1)
0.
0*
0(
1&
#100000
b101 !
1E
00
0P
1M
0U
0T
0R
0O
0J
1I
1H
1?
0<
0D
0C
0A
0>
09
18
17
1%
0,
0/
0-
0)
0#
0&
1$
1"
#120000
b111 !
b11 !
1F
0E
10
1P
1T
1L
1K
0I
0?
1C
1;
1:
08
0%
1-
1*
1(
0$
#140000
b111 !
1E
00
1U
1R
1N
0L
0K
0H
1D
1A
1=
0;
0:
07
1/
1)
1.
0*
0(
0"
