tarea1/parteA/simulation/qsim/TAREA1_A.msim.vcd
$comment
	File created using the following command:
		vcd file TAREA1_A.msim.vcd -direction
$end
$date
	Sun Sep 14 03:48:41 2025
$end
$version
	ModelSim Version 10.1d
$end
$timescale
	1ps
$end
$scope module TAREA1_A_vlg_vec_tst $end
$var reg 1 ! H1 $end
$var reg 4 " SW [3:0] $end
$var wire 1 # Disp [6] $end
$var wire 1 $ Disp [5] $end
$var wire 1 % Disp [4] $end
$var wire 1 & Disp [3] $end
$var wire 1 ' Disp [2] $end
$var wire 1 ( Disp [1] $end
$var wire 1 ) Disp [0] $end
$var wire 1 * sampler $end
$scope module i1 $end
$var wire 1 + gnd $end
$var wire 1 , vcc $end
$var wire 1 - unknown $end
$var tri1 1 . devclrn $end
$var tri1 1 / devpor $end
$var tri1 1 0 devoe $end
$var wire 1 1 Disp[6]~output_o $end
$var wire 1 2 Disp[5]~output_o $end
$var wire 1 3 Disp[4]~output_o $end
$var wire 1 4 Disp[3]~output_o $end
$var wire 1 5 Disp[2]~output_o $end
$var wire 1 6 Disp[1]~output_o $end
$var wire 1 7 Disp[0]~output_o $end
$var wire 1 8 SW[1]~input_o $end
$var wire 1 9 SW[2]~input_o $end
$var wire 1 : SW[3]~input_o $end
$var wire 1 ; H1~input_o $end
$var wire 1 < SW[0]~input_o $end
$var wire 1 = inst|46~0_combout $end
$var wire 1 > inst|33~combout $end
$var wire 1 ? inst|11~combout $end
$var wire 1 @ inst|37~0_combout $end
$var wire 1 A inst|37~1_combout $end
$var wire 1 B inst|32~combout $end
$var wire 1 C inst|36~0_combout $end
$var wire 1 D inst|51~combout $end
$var wire 1 E inst|31~combout $end
$var wire 1 F inst|35~0_combout $end
$var wire 1 G inst|35~1_combout $end
$var wire 1 H inst|34~0_combout $end
$var wire 1 I inst|34~1_combout $end
$upscope $end
$upscope $end
$enddefinitions $end
#0
$dumpvars
1!
b0 "
0)
0(
0'
0&
0%
0$
1#
x*
0+
1,
x-
1.
1/
10
11
02
03
04
05
06
07
08
09
0:
1;
0<
0=
1>
1?
0@
0A
0B
0C
0D
0E
0F
0G
1H
0I
$end
#5000
b1 "
1<
0*
0?
1C
1B
0H
14
13
1&
1%
1A
12
1$
1I
17
1)
#10000
b11 "
b10 "
0<
18
1*
1D
1@
1?
1H
0C
0B
0>
04
03
01
0&
0%
0#
1E
0I
15
07
1'
0)
#15000
b11 "
1<
0*
0D
0?
1B
13
1%
0E
05
0'
#20000
b111 "
b101 "
b100 "
0<
08
19
1*
0@
1?
0H
1I
1C
17
14
1)
1&
0A
02
0$
#25000
b101 "
1<
0*
1F
0?
0I
0C
07
04
0)
0&
1G
16
1(
#30000
b111 "
b110 "
0<
18
1*
1?
1I
0B
17
03
1)
0%
#35000
b111 "
1<
0*
0F
1@
0?
1=
0I
1C
1B
07
14
13
0)
1&
1%
0G
1A
1>
06
12
11
0(
1$
1#
#40000
b1111 "
b1011 "
b1001 "
b1000 "
0<
08
09
1:
1*
0@
1?
0=
1H
1I
0C
0B
17
04
03
1)
0&
0%
0A
0>
0I
02
01
07
0$
0#
0)
#45000
b1001 "
1<
0*
0?
1C
1B
14
13
1&
1%
#50000
b1011 "
b1010 "
0<
18
1*
1D
1@
1?
0H
0C
0B
1G
04
03
16
0&
0%
1(
1E
1A
1I
15
12
17
1'
1$
1)
#55000
b1011 "
1<
0*
0D
0?
1B
13
1%
0E
05
0'
#60000
b1111 "
b1101 "
b1100 "
0<
08
19
1*
0@
1?
1C
0G
1E
14
06
15
1&
0(
1'
0A
02
0$
#65000
b1101 "
1<
0*
1F
0?
0I
0C
07
04
0)
0&
1G
16
1(
#70000
b1111 "
b1110 "
0<
18
1*
1?
1H
1I
0B
17
03
1)
0%
#75000
b1111 "
1<
0*
0F
1@
0?
1=
1C
1B
14
13
1&
1%
1A
1>
12
11
1$
1#
#80000
0!
b111 "
b11 "
b1 "
b0 "
0;
0<
08
09
0:
1*
1D
0H
#85000
b1 "
1<
0*
0D
#90000
b11 "
b10 "
0<
18
1*
1D
1H
#95000
b11 "
1<
0*
0D
#100000
b111 "
b101 "
b100 "
0<
08
19
1*
0H
#105000
b101 "
1<
0*
1F
#110000
b111 "
b110 "
0<
18
1*
#115000
b111 "
1<
0*
0F
#120000
b1111 "
b1011 "
b1001 "
b1000 "
0<
08
09
1:
1*
1D
1H
#125000
b1001 "
1<
0*
0D
#130000
b1011 "
b1010 "
0<
18
1*
1D
0H
#135000
b1011 "
1<
0*
0D
#140000
b1111 "
b1101 "
b1100 "
0<
08
19
1*
#145000
b1101 "
1<
0*
1F
#150000
b1111 "
b1110 "
0<
18
1*
1H
#155000
b1111 "
1<
0*
0F
